<?xml version="1.0" encoding="utf-8"?>
<!-- Generator: Adobe Illustrator 15.1.0, SVG Export Plug-In . SVG Version: 6.00 Build 0)  -->
<!DOCTYPE svg PUBLIC "-//W3C//DTD SVG 1.1//EN" "http://www.w3.org/Graphics/SVG/1.1/DTD/svg11.dtd">
<svg version="1.1" id="layer_x5F_www.ABC-color.com"
	 xmlns="http://www.w3.org/2000/svg" xmlns:xlink="http://www.w3.org/1999/xlink" x="0px" y="0px" width="822px" height="567px"
	 viewBox="0 0 822 567" enable-background="new 0 0 822 567" xml:space="preserve">
<rect display="none" fill="#FFFFFF" width="822" height="567"/>
<text id="image_1_" transform="matrix(1 0 0 1 16 549)" font-family="'MyriadPro-Regular'" font-size="12">www . ABC - color . com</text>
<path fill="#AC977E" stroke="#000000" stroke-width="0.25" stroke-miterlimit="10" d="M466,365.3c0,0,9.3,28.7,9.3,31.3
	c0,2.7,21,30,21.2,30.7s13.5,25.3,13.5,25.3l4.5,17.801l-67,47.5L393.9,469.8l-0.3-0.1l11.2-18.4c0,0,4.2-34,8.4-35.3
	c4.1-1.3,25.399-27.3,24.8-29.3s16.1-30,16.1-30l11.5,8.3L466,365.3z"/>
<path fill="#B5A38D" stroke="#000000" stroke-width="0.25" stroke-miterlimit="10" d="M616.3,262.5l0.3,0.1v0.2l-3,20.9l2.9,15.399
	l17.7,7.5l20.5-5l2.8,15.801l6,14l13,32.1L656,338l-23.6-8l-37.7-18.7l-4.8,28.7l3.5,16.7L590,376l-26-12.7l-26-9.3l-14-16
	c0,0-2.7-14-4-14s-14-16.3-14-17.5s-5.3-15.8-5.3-18.5s-4.2-11.3-4.2-11.3V242l13.4-28l27.899-16.7l17.9-15.3l11.3-9.4l0.1-0.2
	l0.4,0.2l20,40.7L616.3,262.5z"/>
<polygon fill="#A28C70" stroke="#000000" stroke-width="0.25" stroke-miterlimit="10" points="707.3,392.1 707.3,392.2 666.5,418.2 
	624.5,418.3 610,404 590,376 589.9,376 593.3,356.7 589.9,340 594.7,311.3 632.4,330 656,338 676.4,363.4 683.2,372 "/>
<path fill="#C4B5A4" stroke="#000000" stroke-width="0.25" stroke-miterlimit="10" d="M398.7,125.5l14.5,4.4l19.5,2.6l24,0.2
	c2.7,0,16-0.7,18,0c2,0.7,21.8-2.2,21.8-2.2l70.6,41.9l-0.1,0.2l-11.3,9.4l-17.9,15.3L509.9,214l-17.301-6c0,0-14.1-14.7-17.699-16
	c-3.601-1.3-12.301-16-12.301-16l-8.699-10.7l-33.4-22l-21.6-17.5L398.7,125.5z"/>
<path fill="#D3C8BB" stroke="#000000" stroke-width="0.25" stroke-miterlimit="10" d="M456.7,132.7c-2.7,0-11.3-7.3-11.3-7.3l-14-16
	l-13.301-8L411,88l-16.3-7.3l-7.5-15.8l26-12l7.399,9.3l6.301,7.4H437l5,9.2l8,11.3l12.7,3.8l0.5,1.5l17.3,9.8l16,25.4
	c0,0-19.8,2.8-21.8,2.2C472.7,132,459.3,132.7,456.7,132.7z"/>
<path fill="#B9A894" stroke="#000000" stroke-width="0.25" stroke-miterlimit="10" d="M456.7,193.3c0,0,12,34.7,14.7,42
	c2.699,7.3,9.3,32,10,32.1c0.699,0.1,15.199,9.3,15.199,9.3s4.2,8.7,4.2,11.3s5.3,17.3,5.3,18.5s12.7,17.5,14,17.5
	c1.301,0,4,14,4,14l-9.5,18.7c0,0-9.899,31.3-11.899,31.3s-6.2,39.3-6.2,39.3c-0.2-0.7-21.2-28-21.2-30.7c0-2.699-9.3-31.3-9.3-31.3
	l-0.5-0.3v-21c0,0-7.5-15.3-8.8-17.3s-8.8-27.3-9.5-30s-5.7-33.9-5.7-33.9V230l-9.4-50.7l-33.2-53.5l21.6,17.5l33.4,22L456.7,193.3z
	"/>
<path fill="#B6A48F" stroke="#000000" stroke-width="0.25" stroke-miterlimit="10" d="M398.9,125.8l33.2,53.5l9.4,50.7v32.8
	c0,0,5,31.3,5.7,33.9c0.7,2.7,8.2,28,9.5,30s8.8,17.3,8.8,17.3v21l-11.5-8.3l-16.1-4.9l-19.301-7.6l-23.3-14.3l-12.6-18.5
	c0,0-0.1,0-0.2-0.101c1.2-1.5,17.3-21.3,17.3-23.2c0-2-4.5-24-7.2-27.3c-2.7-3.3,0-18,0-21.3s5.8-28.2,5.8-28.2l12-22.1v-19
	l-5.8-18.7l-6.2-14.3v-11.5l0,0L398.9,125.8z"/>
<polygon fill="#B09D86" stroke="#000000" stroke-width="0.25" stroke-miterlimit="10" points="637,267.4 654.5,301.5 634,306.5 
	616.3,299 613.4,283.6 616.5,262.8 616.5,262.6 "/>
<polygon fill="#977D5E" stroke="#000000" stroke-width="0.25" stroke-miterlimit="10" points="697.5,349 707.5,392.1 707.3,392.2 
	707.3,392.1 683.2,372 676.4,363.4 663.3,331.3 657.3,317.3 654.5,301.5 "/>
<path fill="#A58F74" stroke="#000000" stroke-width="0.25" stroke-miterlimit="10" d="M590,376l20,28l14.5,14.3l-65,52.2h-45
	l-4.5-17.8c0,0-13.3-24.7-13.5-25.3c0,0,4.2-39.301,6.2-39.301s11.899-31.3,11.899-31.3L524,338l14,16l26,9.3l25.9,12.601L590,376z"
	/>
<path fill="#C5B7A6" stroke="#000000" stroke-width="0.25" stroke-miterlimit="10" d="M462.7,176c0,0,8.7,14.7,12.3,16
	s17.7,16,17.7,16l17.3,6l-13.4,28v34.7c0,0-14.5-9.2-15.199-9.3c-0.7-0.1-7.301-24.7-10-32.1c-2.7-7.3-14.7-42-14.7-42l-2.7-28
	L462.7,176z"/>
<path fill="#CCC0B0" stroke="#000000" stroke-width="0.25" stroke-miterlimit="10" d="M217.3,338l5.9,6.1l-16.6,12.5l-14-12.699
	l-6.2-12v-8l-0.3-0.2c0.1-0.101,0.1-0.101,0.2-0.2l13.6-8.1l11.9,8.399L217.3,338z"/>
<path id="www.ABC-color.com" fill="#BCAB97" stroke="#000000" stroke-width="0.25" stroke-miterlimit="10" d="M292.7,344.1
	c1.3,1.2,6.7,29.2,7.3,31.2s8,26,8,26l11.3,22l13.6,25.5l-71-7.2l15.5-38.199l-2-31.301l1.3-25.3L262,317.3L231.3,338l-8.1,6.1
	l-5.9-6.1l-5.5-14l-11.9-8.4l22.5-48.2l8.2,12.6l12.7,15.3l16.7,11.2l17.3,10.8C277.3,317.3,291.3,342.9,292.7,344.1z"/>
<path fill="#BBAA96" stroke="#000000" stroke-width="0.25" stroke-miterlimit="10" d="M410.5,170v19l-12,22.1c0,0-5.8,24.9-5.8,28.2
	c0,3.3-2.7,18,0,21.3c2.7,3.3,7.2,25.3,7.2,27.3c0,1.899-16.1,21.8-17.3,23.199c-2.2-1-24.1-11.3-27.4-12.6
	c-3.5-1.3-17.8-14.7-22.3-15.2s-9.6-27.5-9.6-27.5l-4.7-20l14.2-15.3c0,0,2.4-21.3,5.1-24.7c2.7-3.4,15.2-21.3,15.2-21.3l0.3-14.7
	V143l14.5-5l14.8-8.2l15.8-4.4V137l6.2,14.3L410.5,170z"/>
<path fill="#C6B8A8" stroke="#000000" stroke-width="0.25" stroke-miterlimit="10" d="M353.2,143.3l0.3-0.1V160l-0.3,14.7
	c0,0-12.5,18-15.2,21.3s-5.1,24.7-5.1,24.7L318.7,236L300,222l-10.1-10.9l37.6-78.1l9.1,7.7L353.2,143.3z"/>
<polygon fill="#B3A089" stroke="#000000" stroke-width="0.25" stroke-miterlimit="10" points="275.3,372 277.3,403.3 261.9,441.6 
	199.3,448 146.3,400.5 146.3,400.4 182,386.7 206.7,356.7 223.3,344.1 231.3,338 262,317.3 276.7,346.7 "/>
<path fill="#BFB09D" stroke="#000000" stroke-width="0.25" stroke-miterlimit="10" d="M390.5,438.7c0.7,2,3,23.3,3,23.3v7.7
	l-60.6-20.9l-13.6-25.5l-11.3-22c0,0-7.3-24-8-26s-6-30-7.3-31.2c-1.3-1.199-15.3-26.8-15.3-26.8L260,306.5l-16.7-11.2L230.7,280
	l-8.2-12.6l39.4-40.9l18.8,12.8l22.7,14.7l7.3,36.7c0,0,10.7,22.5,13.3,24.899c2.7,2.4,15.3,18.4,20,19.801c4.7,1.3,20,33.3,20,33.3
	l6.7,26.7c0,0,2,18,7.3,22.699C383.3,422.8,389.8,436.7,390.5,438.7z"/>
<path fill="#DFD7CD" stroke="#000000" stroke-width="0.25" stroke-miterlimit="10" d="M456.7,132.7l-24-0.2l-19.5-2.6l-14.5-4.4
	h-0.2l0,0v0.1l-15.8,4.4l-29.6-9.1H353l34.1-56l7.5,15.8L411,88l7,13.3l13.3,8l14,16C445.3,125.3,454,132.7,456.7,132.7z"/>
<path fill="#B19E87" stroke="#000000" stroke-width="0.25" stroke-miterlimit="10" d="M437.9,351.7L454,356.6c0,0-16.7,28-16.1,30
	c0.6,2-20.601,28-24.801,29.301l-8.2-8c0,0-2.3-13.301-6.2-19.301c-3.9-6-2-18-4-20.699c-2-2.7-6.7-18-7.5-19.5
	c-0.8-1.5-4.7-18.5-4.7-18.5v-13v-5.7c0,0,0,0,0.1-0.101c0.1,0.101,0.2,0.101,0.2,0.101l12.6,18.5l23.3,14.3L437.9,351.7z"/>
<path fill="#B9A894" stroke="#000000" stroke-width="0.25" stroke-miterlimit="10" d="M394.7,368c2,2.7,0.1,14.7,4,20.7
	c3.9,6,6.2,19.3,6.2,19.3l8.2,8c-4.1,1.3-8.399,35.3-8.399,35.3l-11.2,18.4h-0.1V462c0,0-2.4-21.3-3-23.3s-7.1-16-12.5-20.7
	s-7.3-22.7-7.3-22.7l-6.7-26.7c0,0-15.3-32-20-33.3c-4.7-1.3-17.3-17.3-20-19.8c-2.7-2.4-13.3-24.9-13.3-24.9l-7.3-36.7l-22.7-14.7
	l-18.8-12.8l28.1-15.4l10.1,11l18.7,14l4.7,20c0,0,5.2,27,9.6,27.5s18.7,13.8,22.3,15.2c3.3,1.3,25.2,11.5,27.4,12.6
	c0,0.101-0.1,0.101-0.1,0.101v5.699v13c0,0,3.9,17,4.7,18.5C388,350,392.7,365.3,394.7,368z"/>
<path fill="#B8A792" stroke="#000000" stroke-width="0.25" stroke-miterlimit="10" d="M186.5,324v8l6.2,12l14,12.7l-24.6,30
	l-35.7,13.7l0,0l0,0c0,0,32.6-67.7,40-76.601L186.5,324z"/>
<polygon fill="#D9CFC4" stroke="#000000" stroke-width="0.25" stroke-miterlimit="10" points="353.2,120.9 382.8,129.9 368,138.2 
	353.5,143.2 353.2,143.3 336.7,140.7 327.6,133 353,121 353.1,120.8 "/>
<polygon fill="#DBD2C8" stroke="#000000" stroke-width="0.25" stroke-miterlimit="10" points="440.4,26.5 462.7,93.8 450,90 
	442,78.7 437,69.5 426.9,69.5 420.6,62.1 413.2,52.9 413.4,52.8 "/>
</svg>
